Add daily incidence to cumulative case counts data.frame — add_incidence_column • sars2pack
…
add_incidence_column(j, grouping_columns=c('CountryRegion','ProvinceState'))
#> # A tibble: 171,915 x 8
#> # Groups:   CountryRegion, ProvinceState [267]
#>    ProvinceState CountryRegion   Lat  Long date       count subset      inc
#>    <chr>         <chr>         <dbl> <dbl> <date>     <dbl> <chr>     <dbl>
#>  1 <NA>          Afghanistan    33.9  67.7 2020-01-22     0 confirmed    NA
#>  2 <NA>          Afghanistan    33.9  67.7 2020-01-23     0 confirmed     0
#>  3 <NA>          Afghanistan    33.9  67.7 2020-01-24     0 confirmed     0
#>  4 <NA>          Afghanistan    33.9  67.7 2020-01-25     0 confirmed     0
#>  5 <NA>          Afghanistan    33.9  67.7 2020-01-26     0 confirmed     0
#>  6 <NA>          Afghanistan    33.9  67.7 2020-01-27     0 confirmed     0
#>  7 <NA>          Afghanistan    33.9  67.7 2020-01-28     0 confirmed     0
#>  8 <NA>          Afghanistan    33.9  67.7 2020-01-29     0 confirmed     0
#>  9 <NA>          Afghanistan    33.9  67.7 2020-01-30     0 confirmed     0
#> 10 <NA>          Afghanistan    33.9  67.7 2020-01-31     0 confirmed     0
#> # … with 171,905 more rows
…
# The JHU data divides some countries into
# regions, so we can collapse to regions
# by simply summing over date/country
j = j %>% filter(CountryRegion %in% j_top_10[['CountryRegion']] & subset=='deaths') %>%
    dplyr::group_by(date, CountryRegion) %>%
    dplyr::summarize(count = sum(count))
#> `summarise()` regrouping output by 'date' (override with `.groups` argument)

j
#> # A tibble: 2,190 x 3
#> # Groups:   date [219]
#>    date       CountryRegion  count
#>    <date>     <chr>          <dbl>
#>  1 2020-01-22 Brazil             0
#>  2 2020-01-22 France             0
#>  3 2020-01-22 India              0
#>  4 2020-01-22 Iran               0
#>  5 2020-01-22 Italy              0
#>  6 2020-01-22 Mexico             0
#>  7 2020-01-22 Peru               0
#>  8 2020-01-22 Spain              0
#>  9 2020-01-22 United Kingdom     0
#> 10 2020-01-22 US                 0
#> # … with 2,180 more rows

# Add an incidence column to the cumulative dataset
j_inc = add_incidence_column(j, grouping_columns='CountryRegion')

j_inc
#> # A tibble: 2,190 x 4
#> # Groups:   CountryRegion [10]
#>    date       CountryRegion  count   inc
#>    <date>     <chr>          <dbl> <dbl>
#>  1 2020-01-22 Brazil             0    NA
#>  2 2020-01-22 France             0    NA
#>  3 2020-01-22 India              0    NA
#>  4 2020-01-22 Iran               0    NA
#>  5 2020-01-22 Italy              0    NA
#>  6 2020-01-22 Mexico             0    NA
#>  7 2020-01-22 Peru               0    NA
#>  8 2020-01-22 Spain              0    NA
#>  9 2020-01-22 United Kingdom     0    NA
#> 10 2020-01-22 US                 0    NA
#> # … with 2,180 more rows
…
