Excess deaths during covid for US and selected countries — economist_excess_deaths • sars2pack
…
#> Columns: 12
#> $ country         <chr> "Brazil", "Brazil", "Brazil", "Brazil", "Brazil", "Br…
#> $ region          <chr> "Recife", "Recife", "Recife", "Recife", "Recife", "Re…
#> $ region_code     <chr> "26", "26", "26", "26", "26", "26", "26", "13", "13",…
#> $ start_date      <date> 2020-01-01, 2020-02-01, 2020-03-01, 2020-04-01, 2020…
#> $ end_date        <date> 2020-01-31, 2020-02-29, 2020-03-31, 2020-04-30, 2020…
#> $ year            <dbl> 2020, 2020, 2020, 2020, 2020, 2020, 2020, 2020, 2020,…
#> $ month           <dbl> 1, 2, 3, 4, 5, 6, 7, 1, 2, 3, 4, 5, 6, 7, 1, 2, 3, 4,…
#> $ population      <dbl> 1645727, 1645727, 1645727, 1645727, 1645727, 1645727,…
#> $ total_deaths    <dbl> 1334, 1244, 1386, 1815, 2979, 1682, 1514, 1121, 976, …
#> $ covid_deaths    <dbl> 0, 1, 7, 238, 897, 431, 260, 0, 0, 2, 462, 684, 228, …
#> $ expected_deaths <dbl> 1019.250, 954.500, 1069.750, 983.500, 1011.500, 957.5…
#> $ week            <dbl> NA, NA, NA, NA, NA, NA, NA, NA, NA, NA, NA, NA, NA, N…
res
#> # A tibble: 9,644 x 12
#>    country region region_code start_date end_date    year month population
#>    <chr>   <chr>  <chr>       <date>     <date>     <dbl> <dbl>      <dbl>
#>  1 Brazil  Recife 26          2020-01-01 2020-01-31  2020     1    1645727
#>  2 Brazil  Recife 26          2020-02-01 2020-02-29  2020     2    1645727
#>  3 Brazil  Recife 26          2020-03-01 2020-03-31  2020     3    1645727
#>  4 Brazil  Recife 26          2020-04-01 2020-04-30  2020     4    1645727
#>  5 Brazil  Recife 26          2020-05-01 2020-05-31  2020     5    1645727
#>  6 Brazil  Recife 26          2020-06-01 2020-06-30  2020     6    1645727
#>  7 Brazil  Recife 26          2020-07-01 2020-07-31  2020     7    1645727
#>  8 Brazil  Manaus 13          2020-01-01 2020-01-31  2020     1    2182763
#>  9 Brazil  Manaus 13          2020-02-01 2020-02-29  2020     2    2182763
#> 10 Brazil  Manaus 13          2020-03-01 2020-03-31  2020     3    2182763
#> # … with 9,634 more rows, and 4 more variables: total_deaths <dbl>,
#> #   covid_deaths <dbl>, expected_deaths <dbl>, week <dbl>
…
