healthdata.org covid19 testing observations and predictions — healthdata_testing_data • sars2pack
…
    Author

    Sean Davis seandavi@gmail.com

    Examples

res = healthdata_mobility_data()
res

#> # A tibble: 128,310 x 4
#>    mobility_data_type mobility_composite location_name date      
#>    <chr>                           <dbl> <chr>         <date>    
#>  1 observed                        -12.5 Global        2020-02-08
#>  2 observed                        -12.6 Global        2020-02-09
#>  3 observed                        -12.8 Global        2020-02-10
#>  4 observed                        -12.9 Global        2020-02-11
#>  5 observed                        -13.0 Global        2020-02-12
#>  6 observed                        -13.0 Global        2020-02-13
#>  7 observed                        -13.1 Global        2020-02-14
#>  8 observed                        -13.1 Global        2020-02-15
#>  9 observed                        -13.0 Global        2020-02-16
#> 10 observed                        -13.0 Global        2020-02-17
#> # … with 128,300 more rows
…
