healthdata.org covid19 mobility observations and predictions — healthdata_mobility_data • sars2pack
…
Other mobility: 
apple_mobility_data(),
descartes_mobility_data(),
google_mobility_data()

    Examples

res = healthdata_mobility_data()
res
#> # A tibble: 98,422 x 4
#>    mobility_data_type mobility_composite location_name date      
#>    <chr>                           <dbl> <chr>         <date>    
#>  1 observed                         6.65 Abruzzo       2020-02-08
#>  2 observed                         6.45 Abruzzo       2020-02-09
#>  3 observed                         6.24 Abruzzo       2020-02-10
#>  4 observed                         6.00 Abruzzo       2020-02-11
#>  5 observed                         5.73 Abruzzo       2020-02-12
#>  6 observed                         5.43 Abruzzo       2020-02-13
#>  7 observed                         5.10 Abruzzo       2020-02-14
#>  8 observed                         4.74 Abruzzo       2020-02-15
#>  9 observed                         4.33 Abruzzo       2020-02-16
#> 10 observed                         3.85 Abruzzo       2020-02-17
#> # … with 98,412 more rows
…
