OECD International unemployment statistics — oecd_unemployment_data • sars2pack
…
    Author

    Sean Davis seandavi@gmail.com

    Examples

unemp = oecd_unemployment_data()
unemp

#> # A tibble: 40,008 x 10
#>    iso3c indicator subject measure frequency value `flag codes` date      
#>    <chr> <chr>     <chr>   <chr>   <chr>     <dbl> <chr>        <date>    
#>  1 GBR   unemp     15_24   PC_LF   annual    19.6  NA           1983-01-01
#>  2 GBR   unemp     15_24   PC_LF   annual    18.7  NA           1984-01-01
#>  3 GBR   unemp     15_24   PC_LF   annual    18.0  NA           1985-01-01
#>  4 GBR   unemp     15_24   PC_LF   annual    17.7  NA           1986-01-01
#>  5 GBR   unemp     15_24   PC_LF   annual    15.1  NA           1987-01-01
#>  6 GBR   unemp     15_24   PC_LF   annual    12.2  NA           1988-01-01
#>  7 GBR   unemp     15_24   PC_LF   annual     9.95 NA           1989-01-01
#>  8 GBR   unemp     15_24   PC_LF   annual    10.4  NA           1990-01-01
#>  9 GBR   unemp     15_24   PC_LF   annual    13.9  NA           1991-01-01
#> 10 GBR   unemp     15_24   PC_LF   annual    16.4  NA           1992-01-01
#> # … with 39,998 more rows, and 2 more variables: country <chr>, region <chr>
…
