sars2pack: Easy access to and use of iconic COVID-19 data resource — sars2pack-package • sars2pack
…
    Foo functions

The foo functions ...

    Examples

library(sars2pack)

# Show me all the available datasets
available_datasets()

#> # A tibble: 35 x 8
#>    name     accessor data_type geographical geospatial region resolution url    
#>    <chr>    <chr>    <list>    <lgl>        <lgl>      <list> <list>     <chr>  
#>  1 United … cdc_soc… <chr [1]> TRUE         FALSE      <chr … <chr [1]>  https:…
#>  2 Extensi… us_hosp… <chr [1]> TRUE         TRUE       <chr … <chr [1]>  https:…
#>  3 The Eco… economi… <chr [3]> TRUE         FALSE      <chr … <chr [2]>  https:…
#>  4 The : E… financi… <chr [3]> TRUE         FALSE      <chr … <chr [2]>  https:…
#>  5 US coun… us_coun… <chr [1]> TRUE         FALSE      <chr … <chr [3]>  https:…
#>  6 CoronaN… coronan… <chr [1]> TRUE         FALSE      <chr … <chr [2]>  https:…
#>  7 Country… country… <chr [1]> TRUE         FALSE      <chr … <chr [1]>  https:…
#>  8 Our Wor… owid_da… <chr [4]> TRUE         FALSE      <chr … <chr [1]>  https:…
#>  9 GISAID … cov_glu… <chr [1]> TRUE         FALSE      <chr … <chr [1]>  https:…
#> 10 Newick … cov_glu… <chr [1]> FALSE        FALSE      <chr … <chr [1]>  https:…
#> # … with 25 more rows
…
