United States county-level geographic details — us_county_geo_details • sars2pack
…
#> $ fips            <chr> "01001", "01003", "01005", "01007", "01009", "01011",…
#> $ ansicode        <chr> "00161526", "00161527", "00161528", "00161529", "0016…
#> $ county          <chr> "Autauga County", "Baldwin County", "Barbour County",…
#> $ area_land       <dbl> 1539602137, 4117621645, 2292160139, 1612167476, 16701…
#> $ area_water      <dbl> 25706961, 1132980868, 50523213, 9602089, 15015467, 60…
#> $ area_land_sqmi  <dbl> 594.444, 1589.823, 885.008, 622.461, 644.831, 622.812…
#> $ area_water_sqmi <dbl> 9.926, 437.446, 19.507, 3.707, 5.798, 2.331, 1.043, 6…
#> $ geometry        <POINT> POINT (-86.64644 32.53224), POINT (-87.74607 30.659…
usc
#> Simple feature collection with 3220 features and 8 fields
#> geometry type:  POINT
#> dimension:      XY
#> bbox:           xmin: -164.1889 ymin: 17.94805 xmax: 179.6212 ymax: 69.44934
#> CRS:            NA
#> # A tibble: 3,220 x 9
#>    state fips  ansicode county area_land area_water area_land_sqmi
#>    <chr> <chr> <chr>    <chr>      <dbl>      <dbl>          <dbl>
#>  1 AL    01001 00161526 Autau…    1.54e9   25706961           594.
#>  2 AL    01003 00161527 Baldw…    4.12e9 1132980868          1590.
#>  3 AL    01005 00161528 Barbo…    2.29e9   50523213           885.
#>  4 AL    01007 00161529 Bibb …    1.61e9    9602089           622.
#>  5 AL    01009 00161530 Bloun…    1.67e9   15015467           645.
#>  6 AL    01011 00161531 Bullo…    1.61e9    6038093           623.
#>  7 AL    01013 00161532 Butle…    2.01e9    2701198           777.
#>  8 AL    01015 00161533 Calho…    1.57e9   16587192           606.
#>  9 AL    01017 00161534 Chamb…    1.55e9   16971700           597.
#> 10 AL    01019 00161535 Chero…    1.43e9  120308342           554.
#> # … with 3,210 more rows, and 2 more variables: area_water_sqmi <dbl>,
#> #   geometry <POINT>
…
