United States healthcare system capacity by provider — us_healthcare_capacity • sars2pack
…
#> cols(
#>   .default = col_character(),
#>   Zipcode = col_double(),
#>   Latitude = col_double(),
#>   Longitude = col_double(),
#>   `Staffed All Beds` = col_double(),
#>   `Staffed ICU Beds` = col_double(),
#>   `Licensed All Beds` = col_double(),
#>   `All Bed Occupancy Rate` = col_double(),
#>   `ICU Bed Occupancy Rate` = col_double(),
#>   CCM_ID = col_double(),
#>   `DH-OBJECTID` = col_double()
#> )
#> See spec(...) for full column specifications.
#> # A tibble: 6,348 x 23
#>    Name  `Hospital Type` Address Address_2 City  State Zipcode County Latitude
#>    <chr> <chr>           <chr>   <chr>     <chr> <chr>   <dbl> <chr>     <dbl>
#>  1 Cree… Psychiatric Ho… 1025 E… NA        King… TN      37660 Sulli…     36.5
#>  2 Indi… Short Term Acu… 2000 B… NA        King… TN      37660 Sulli…     36.6
#>  3 AMG … Short Term Acu… 801 N … 3rd Fl    Gree… IN      46140 Hanco…     39.8
#>  4 Hanc… Short Term Acu… 801 N … NA        Gree… IN      46140 Hanco…     39.8
#>  5 Ohio… Short Term Acu… 300 W … NA        Colu… OH      43210 Frank…     40.0
#>  6 Ohio… Short Term Acu… 410 W … NA        Colu… OH      43210 Frank…     40.0
#>  7 The … Short Term Acu… 460 W … NA        Colu… OH      43210 Frank…     40.0
#>  8 Prov… Childrens Hosp… 101 W … NA        Spok… WA      99204 Spoka…     47.6
#>  9 Inla… Psychiatric Ho… 104 W … NA        Spok… WA      99204 Spoka…     47.7
#> 10 Shri… Childrens Hosp… 911 W … NA        Spok… WA      99204 Spoka…     47.7
#> # … with 6,338 more rows, and 14 more variables: Longitude <dbl>, `Staffed All
#> #   Beds` <dbl>, `Staffed ICU Beds` <dbl>, `Licensed All Beds` <dbl>, `All Bed
#> #   Occupancy Rate` <dbl>, `ICU Bed Occupancy Rate` <dbl>, `Staffed All Beds -
#> #   SOURCE` <chr>, `Staffed ICU Beds - SOURCE` <chr>, `Licensed All Beds -
#> #   SOURCE` <chr>, `All Bed Occupancy Rate - SOURCE` <chr>, `ICU Bed Occupancy
#> #   Rate - SOURCE` <chr>, CCM_ID <dbl>, `DH-OBJECTID` <dbl>, `HCRIS-Provider
#> #   Number` <chr>
…
