Add daily incidence to cumulative case counts data.frame — add_incidence_column • sars2pack
…
add_incidence_column(j, grouping_columns=c('CountryRegion','ProvinceState'))
#> # A tibble: 91,845 x 8
#> # Groups:   CountryRegion, ProvinceState [267]
#>    ProvinceState      CountryRegion     Lat   Long date       count subset   inc
#>    <chr>              <chr>           <dbl>  <dbl> <date>     <dbl> <chr>  <dbl>
#>  1 NA                 Afghanistan      33    65    2020-01-22     0 confi…    NA
#>  2 NA                 Albania          41.2  20.2  2020-01-22     0 confi…    NA
#>  3 NA                 Algeria          28.0   1.66 2020-01-22     0 confi…    NA
#>  4 NA                 Andorra          42.5   1.52 2020-01-22     0 confi…    NA
#>  5 NA                 Angola          -11.2  17.9  2020-01-22     0 confi…    NA
#>  6 NA                 Antigua and Ba…  17.1 -61.8  2020-01-22     0 confi…    NA
#>  7 NA                 Argentina       -38.4 -63.6  2020-01-22     0 confi…    NA
#>  8 NA                 Armenia          40.1  45.0  2020-01-22     0 confi…    NA
#>  9 Australian Capita… Australia       -35.5 149.   2020-01-22     0 confi…    NA
#> 10 New South Wales    Australia       -33.9 151.   2020-01-22     0 confi…    NA
#> # … with 91,835 more rows
…
# The JHU data divides some countries into
# regions, so we can collapse to regions
# by simply summing over date/country
j = j %>% filter(CountryRegion %in% j_top_10[['CountryRegion']] & subset=='deaths') %>%
    dplyr::group_by(date, CountryRegion) %>%
    dplyr::summarize(count = sum(count))

j
#> # A tibble: 1,170 x 3
#> # Groups:   date [117]
#>    date       CountryRegion  count
#>    <date>     <chr>          <dbl>
#>  1 2020-01-22 Belgium            0
#>  2 2020-01-22 Brazil             0
#>  3 2020-01-22 France             0
#>  4 2020-01-22 Germany            0
#>  5 2020-01-22 Iran               0
#>  6 2020-01-22 Italy              0
#>  7 2020-01-22 Netherlands        0
#>  8 2020-01-22 Spain              0
#>  9 2020-01-22 United Kingdom     0
#> 10 2020-01-22 US                 0
#> # … with 1,160 more rows

# Add an incidence column to the cumulative dataset
j_inc = add_incidence_column(j, grouping_columns='CountryRegion')

j_inc
#> # A tibble: 1,170 x 4
#> # Groups:   CountryRegion [10]
#>    date       CountryRegion  count   inc
#>    <date>     <chr>          <dbl> <dbl>
#>  1 2020-01-22 Belgium            0    NA
#>  2 2020-01-22 Brazil             0    NA
#>  3 2020-01-22 France             0    NA
#>  4 2020-01-22 Germany            0    NA
#>  5 2020-01-22 Iran               0    NA
#>  6 2020-01-22 Italy              0    NA
#>  7 2020-01-22 Netherlands        0    NA
#>  8 2020-01-22 Spain              0    NA
#>  9 2020-01-22 United Kingdom     0    NA
#> 10 2020-01-22 US                 0    NA
#> # … with 1,160 more rows
…
