sars2pack: packaging of C. Morefield code on COVID-19 epidemic modeling • sars2pack
…
Introduction

John C Mallery conveyed code of Charles Morefield to harvest COVID-19 time series data. Vince Carey has started an R package/github repo to manage the relevant code. The package is called sars2pack in hopes of avoiding name conflict with many other packages likely developing.

The main functionalities thus far concern importing data from Johns Hopkins Whiting School github repo github.com/CSSEGISandData and using the R0 package to perform certain tasks of epidemic modeling. We also retain a snapshot of existing time series data from 19 March 2020 to facilitate demonstration.

Data and updating

Access

The snapshot looks like:

as_tibble(mar19df)

## # A tibble: 462 x 61
##    ProvinceState CountryRegion    Lat   Long `1/22/20` `1/23/20` `1/24/20`
##    <chr>         <chr>          <dbl>  <dbl>     <int>     <int>     <int>
##  1 ""            Thailand       15     101           2         3         5
##  2 ""            Japan          36     138           2         1         2
##  3 ""            Singapore       1.28  104.          0         1         3
##  4 ""            Nepal          28.2    84.2         0         0         0
##  5 ""            Malaysia        2.5   112.          0         0         0
##  6 "British Col… Canada         49.3  -123.          0         0         0
##  7 "New South W… Australia     -33.9   151.          0         0         0
##  8 "Victoria"    Australia     -37.8   145.          0         0         0
##  9 "Queensland"  Australia     -28.0   153.          0         0         0
## 10 ""            Cambodia       11.6   105.          0         0         0
## # … with 452 more rows, and 54 more variables: `1/25/20` <int>,
## #   `1/26/20` <int>, `1/27/20` <int>, `1/28/20` <int>, `1/29/20` <int>,
## #   `1/30/20` <int>, `1/31/20` <int>, `2/1/20` <int>, `2/2/20` <int>,
## #   `2/3/20` <int>, `2/4/20` <int>, `2/5/20` <int>, `2/6/20` <int>,
## #   `2/7/20` <int>, `2/8/20` <int>, `2/9/20` <int>, `2/10/20` <int>,
## #   `2/11/20` <int>, `2/12/20` <int>, `2/13/20` <int>, `2/14/20` <int>,
## #   `2/15/20` <int>, `2/16/20` <int>, `2/17/20` <int>, `2/18/20` <int>,
## #   `2/19/20` <int>, `2/20/20` <int>, `2/21/20` <int>, `2/22/20` <int>,
## #   `2/23/20` <int>, `2/24/20` <int>, `2/25/20` <int>, `2/26/20` <int>,
…
